TRACE.vcd
$var reg 	3 !	Registerfile.storesel  $end
$var reg 	32 "	Registerfile.two  $end
$var reg 	32 #	Registerfile.three  $end
$var reg 	32 $	Registerfile.four  $end
$var reg 	32 %	Registerfile.five  $end
$var reg 	32 &	Registerfile.six  $end
$var reg 	32 '	Registerfile.seven  $end
$var reg 	32 (	Registerfile.eight  $end
$var reg 	16 )	PC.a  $end
$var reg 	32 *	CPU.odata  $end
$var reg 	1 +	CPU.zero  $end
$var reg 	1 ,	CPU.neg  $end
$var reg 	1 -	CPU.memoryFlag  $end
$var reg 	1 .	CPU.jflag  $end
$var reg 	3 /	CPU.alufunc  $end
$var reg 	1 0	CPU.storeflag  $end
$var reg 	1 1	CPU.iflag  $end
$var reg 	1 2	CPU.stall  $end
$var reg 	32 3	CPU.aluRes  $end
$var reg 	1 4	bus.reqDataMem  $end
$var reg 	32 5	bus.cmdDataMem  $end
$var reg 	32 6	bus.datainDataMem  $end
$var reg 	1 7	bus.ackDataMem  $end
$var reg 	1 8	bus.dataRdyDataMem  $end
$var reg 	32 9	bus.dataoutDataMem  $end
$var reg 	1 :	bus.waitDataMem  $end
$var reg 	1 ;	bus.reqSensor  $end
$var reg 	32 <	bus.cmdSensor  $end
$var reg 	1 =	bus.ackSensor  $end
$var reg 	1 >	bus.dataRdySensor  $end
$var reg 	32 ?	bus.dataoutSensor  $end
$var reg 	1 @	bus.waitSensor  $end
$var reg 	1 A	bus.reqOutput  $end
$var reg 	32 B	bus.cmdOutput  $end
$var reg 	32 C	bus.datainOutput  $end
$var reg 	1 D	bus.ackOutput  $end
$var reg 	1 E	bus.dataRdyOutput  $end
$var reg 	32 F	bus.dataoutOutput  $end
$var reg 	1 G	bus.waitOutput  $end
$var reg 	1 H	bus.reqCPU  $end
$var reg 	32 I	bus.cmdCPU  $end
$var reg 	32 J	bus.dataoutCPU  $end
$var reg 	1 K	bus.ackCPU  $end
$var reg 	1 L	bus.dataRdyCPU  $end
$var reg 	32 M	bus.datainCPU  $end
$var reg 	1 N	bus.waitCPU  $end
$var reg 	32 O	bus_toplevel.DM_datain  $end
$var reg 	1 P	bus_toplevel.DM_datainrdy  $end
$var reg 	32 Q	bus_toplevel.DM_dataout  $end
$var reg 	32 R	bus_toplevel.DM_cmdout  $end
$var reg 	1 S	bus_toplevel.DM_dataoutrdy  $end
$var reg 	32 T	bus_toplevel.SS_datain  $end
$var reg 	1 U	bus_toplevel.SS_datainrdy  $end
$var reg 	32 V	bus_toplevel.SS_dataout  $end
$var reg 	32 W	bus_toplevel.SS_cmdout  $end
$var reg 	1 X	bus_toplevel.SS_dataoutrdy  $end
$var reg 	32 Y	bus_toplevel.OP_datain  $end
$var reg 	1 Z	bus_toplevel.OP_datainrdy  $end
$var reg 	32 [	bus_toplevel.OP_dataout  $end
$var reg 	32 \	bus_toplevel.OP_cmdout  $end
$var reg 	1 ]	bus_toplevel.OP_dataoutrdy  $end
$var reg 	12 ^	DataMem.address  $end
$var reg 	1 _	DataMem.wr  $end
$var reg 	1 `	DataMem.rd  $end
$var reg 	32 a	DataMem.idata  $end
$var reg 	32 b	Sensor.odata  $end
$var reg 	10 c	Sensor.c  $end
$var reg 	32 d	Output.FilterOut  $end
$var reg 	10 e	Output.count  $end
$enddefinitions $end 
$enddefinitions $end 
#1
b001 !
b00000000000000000000000000000000 "
b00000000000000000000000000000000 #
b00000000000000000000000000000000 $
b00000000000000000000000000000000 %
b00000000000000000000000000000000 &
b00000000000000000000000000000000 '
b00000000000000000000000000000000 (
b0000000000000000 )
b00010001001001000000000000000000 *
b0 +
b0 ,
b0 -
b0 .
b010 /
b1 0
b0 1
b0 2
b00000000000000000000000000000000 3
b0 4
b00000000000000000000000000000000 5
b00000000000000000000000000000000 6
b0 7
b0 8
b00000000000000000000000000000000 9
b0 :
b0 ;
b00000000000000000000000000000000 <
b0 =
b0 >
b00000000000000000000000000000000 ?
b0 @
b0 A
b00000000000000000000000000000000 B
b00000000000000000000000000000000 C
b0 D
b0 E
b00000000000000000000000000000000 F
b0 G
b0 H
b00000000000000000000000000000000 I
b00000000000000000000000000000000 J
b0 K
b0 L
b00000000000000000000000000000000 M
b0 N
b00000000000000000000000000000000 O
b0 P
b00000000000000000000000000000000 Q
b00000000000000000000000000000000 R
b0 S
b11111111111111111111111100110110 T
b0 U
b00000000000000000000000000000000 V
b00000000000000000000000000000000 W
b0 X
b00000000000000000000000100100011 Y
b0 Z
b00000000000000000000000000000000 [
b00000000000000000000000000000000 \
b0 ]
b000000000000 ^
b0 _
b1 `
b00000000000000000000000000000000 a
b11111111111111111111111100110110 b
b0000000000 c
b00000000000000000000000000000000 d
b0000000000 e
#2
b010 !
b00000000000000000000000000000000 "
b00000000000000000000000000000000 #
b00000000000000000000000000000000 $
b00000000000000000000000000000000 %
b00000000000000000000000000000000 &
b00000000000000000000000000000000 '
b00000000000000000000000000000000 (
b0000000000000001 )
b00010010010010000000000000000000 *
b1 +
b0 ,
b0 -
b0 .
b010 /
b1 0
b0 1
b0 2
b00000000000000000000000000000000 3
b0 4
b00000000000000000000000000000000 5
b00000000000000000000000000000000 6
b0 7
b0 8
b00000000000000000000000000000000 9
b0 :
b0 ;
b00000000000000000000000000000000 <
b0 =
b0 >
b00000000000000000000000000000000 ?
b0 @
b0 A
b00000000000000000000000000000000 B
b00000000000000000000000000000000 C
b0 D
b0 E
b00000000000000000000000000000000 F
b0 G
b0 H
b00100000000000000000000000000000 I
b00000000000000000000000000000000 J
b0 K
b0 L
b00000000000000000000000000000000 M
b0 N
b00000000000000000000000000000000 O
b0 P
b00000000000000000000000000000000 Q
b00000000000000000000000000000000 R
b0 S
b11111111111111111111111100110110 T
b0 U
b00000000000000000000000000000000 V
b00000000000000000000000000000000 W
b0 X
b00000000000000000000000100100011 Y
b0 Z
b00000000000000000000000000000000 [
b00000000000000000000000000000000 \
b0 ]
b000000000000 ^
b0 _
b1 `
b00000000000000000000000000000000 a
b11111111111111111111111100110110 b
b0000000000 c
b00000000000000000000000000000000 d
b0000000000 e
#3
b011 !
b00000000000000000000000000000000 "
b00000000000000000000000000000000 #
b00000000000000000000000000000000 $
b00000000000000000000000000000000 %
b00000000000000000000000000000000 &
b00000000000000000000000000000000 '
b00000000000000000000000000000000 (
b0000000000000010 )
b00010011011011000000000000000000 *
b1 +
b0 ,
b0 -
b0 .
b010 /
b1 0
b0 1
b0 2
b00000000000000000000000000000000 3
b0 4
b00000000000000000000000000000000 5
b00000000000000000000000000000000 6
b0 7
b0 8
b00000000000000000000000000000000 9
b0 :
b0 ;
b00000000000000000000000000000000 <
b0 =
b0 >
b00000000000000000000000000000000 ?
b0 @
b0 A
b00000000000000000000000000000000 B
b00000000000000000000000000000000 C
b0 D
b0 E
b00000000000000000000000000000000 F
b0 G
b0 H
b00100000000000000000000000000000 I
b00000000000000000000000000000000 J
b0 K
b0 L
b00000000000000000000000000000000 M
b0 N
b00000000000000000000000000000000 O
b0 P
b00000000000000000000000000000000 Q
b00000000000000000000000000000000 R
b0 S
b11111111111111111111111100110110 T
b0 U
b00000000000000000000000000000000 V
b00000000000000000000000000000000 W
b0 X
b00000000000000000000000100100011 Y
b0 Z
b00000000000000000000000000000000 [
b00000000000000000000000000000000 \
b0 ]
b000000000000 ^
b0 _
b1 `
b00000000000000000000000000000000 a
b11111111111111111111111100110110 b
b0000000001 c
b00000000000000000000000000000000 d
b0000000000 e
#4
b001 !
b00000000000000000000000000000000 "
b00000000000000000000000000000000 #
b00000000000000000000000000000000 $
b00000000000000000000000000000000 %
b00000000000000000000000000000000 &
b00000000000000000000000000000000 '
b00000000000000000000000000000000 (
b0000000000000011 )
b01001001001000001000000000000000 *
b1 +
b0 ,
b0 -
b0 .
b001 /
b1 0
b1 1
b0 2
b00000000000000000000000000100000 3
b0 4
b00000000000000000000000000000000 5
b00000000000000000000000000000000 6
b0 7
b0 8
b00000000000000000000000000000000 9
b0 :
b0 ;
b00000000000000000000000000000000 <
b0 =
b0 >
b00000000000000000000000000000000 ?
b0 @
b0 A
b00000000000000000000000000000000 B
b00000000000000000000000000000000 C
b0 D
b0 E
b00000000000000000000000000000000 F
b0 G
b0 H
b00100000000000000000000000000000 I
b00000000000000000000000000000000 J
b0 K
b0 L
b00000000000000000000000000000000 M
b0 N
b00000000000000000000000000000000 O
b0 P
b00000000000000000000000000000000 Q
b00000000000000000000000000000000 R
b0 S
b11111111111111111111111100110110 T
b0 U
b00000000000000000000000000000000 V
b00000000000000000000000000000000 W
b0 X
b00000000000000000000000100100011 Y
b0 Z
b00000000000000000000000000000000 [
b00000000000000000000000000000000 \
b0 ]
b000000000000 ^
b0 _
b1 `
b00000000000000000000000000000000 a
b11111111111111111111111100110110 b
b0000000010 c
b00000000000000000000000000000000 d
b0000000000 e
#5
b111 !
b00000000000000000000000000100000 "
b00000000000000000000000000000000 #
b00000000000000000000000000000000 $
b00000000000000000000000000000000 %
b00000000000000000000000000000000 &
b00000000000000000000000000000000 '
b00000000000000000000000000000000 (
b0000000000000100 )
b01001111111100000000010000000000 *
b0 +
b0 ,
b0 -
b0 .
b001 /
b1 0
b1 1
b0 2
b00000000000000000000010000000001 3
b0 4
b00000000000000000000000000000000 5
b00000000000000000000000000000000 6
b0 7
b0 8
b00000000000000000000000000000000 9
b0 :
b0 ;
b00000000000000000000000000000000 <
b0 =
b0 >
b00000000000000000000000000000000 ?
b0 @
b0 A
b00000000000000000000000000000000 B
b00000000000000000000000000000000 C
b0 D
b0 E
b00000000000000000000000000000000 F
b0 G
b0 H
b00100000000000000000000000000000 I
b00000000000000000000000000000000 J
b0 K
b0 L
b00000000000000000000000000000000 M
b0 N
b00000000000000000000000000000000 O
b0 P
b00000000000000000000000000000000 Q
b00000000000000000000000000000000 R
b0 S
b11111111111111111111111100110110 T
b0 U
b00000000000000000000000000000000 V
b00000000000000000000000000000000 W
b0 X
b00000000000000000000000100100011 Y
b0 Z
b00000000000000000000000000000000 [
b00000000000000000000000000000000 \
b0 ]
b000000000000 ^
b0 _
b1 `
b00000000000000000000000000000000 a
b11111111111111111111111100110110 b
b0000000011 c
b00000000000000000000000000000000 d
b0000000000 e
#6
b011 !
b00000000000000000000000000100000 "
b00000000000000000000000000000000 #
b00000000000000000000000000000000 $
b00000000000000000000000000000000 %
b00000000000000000000000000000000 &
b00000000000000000000000000000000 '
b00000000000000000000010000000001 (
b0000000000000101 )
b10001011001000000000000000000000 *
b0 +
b0 ,
b1 -
b0 .
b000 /
b0 0
b0 1
b1 2
b00000000000000000000000000100000 3
b0 4
b00000000000000000000000000000000 5
b00000000000000000000000000000000 6
b0 7
b0 8
b00000000000000000000000000000000 9
b0 :
b0 ;
b00000000000000000000000000000000 <
b0 =
b0 >
b00000000000000000000000000000000 ?
b0 @
b0 A
b00000000000000000000000000000000 B
b00000000000000000000000000000000 C
b0 D
b0 E
b00000000000000000000000000000000 F
b0 G
b0 H
b00100000000000000000000000000000 I
b00000000000000000000000000000000 J
b0 K
b0 L
b00000000000000000000000000000000 M
b0 N
b00000000000000000000000000000000 O
b0 P
b00000000000000000000000000000000 Q
b00000000000000000000000000000000 R
b0 S
b11111111111111111111111100110110 T
b0 U
b00000000000000000000000000000000 V
b00000000000000000000000000000000 W
b0 X
b00000000000000000000000100100011 Y
b0 Z
b00000000000000000000000000000000 [
b00000000000000000000000000000000 \
b0 ]
b000000000000 ^
b0 _
b1 `
b00000000000000000000000000000000 a
b11111111111111111111111100110110 b
b0000000100 c
b00000000000000000000000000000000 d
b0000000000 e
#7
b011 !
b00000000000000000000000000100000 "
b00000000000000000000000000000000 #
b00000000000000000000000000000000 $
b00000000000000000000000000000000 %
b00000000000000000000000000000000 &
b00000000000000000000000000000000 '
b00000000000000000000010000000001 (
b0000000000000101 )
b10001011001000000000000000000000 *
b0 +
b0 ,
b1 -
b0 .
b000 /
b0 0
b0 1
b1 2
b00000000000000000000000000100000 3
b1 4
b00100000000000000000000000000000 5
b00000000000000000000000000100000 6
b0 7
b0 8
b00000000000000000000000000000000 9
b0 :
b1 ;
b00100000000000000000000000000000 <
b0 =
b0 >
b00000000000000000000000000000000 ?
b0 @
b1 A
b00100000000000000000000000000000 B
b00000000000000000000000000100000 C
b0 D
b0 E
b00000000000000000000000000000000 F
b0 G
b1 H
b00100000000000000000000000000000 I
b00000000000000000000000000100000 J
b0 K
b0 L
b00000000000000000000000000000000 M
b0 N
b00000000000000000000000000000000 O
b0 P
b00000000000000000000000000000000 Q
b00000000000000000000000000000000 R
b0 S
b11111111111111111111111100110110 T
b0 U
b00000000000000000000000000000000 V
b00000000000000000000000000000000 W
b0 X
b00000000000000000000000100100011 Y
b0 Z
b00000000000000000000000000000000 [
b00000000000000000000000000000000 \
b0 ]
b000000000000 ^
b0 _
b1 `
b00000000000000000000000000000000 a
b11111111111111111111111100110110 b
b0000000101 c
b00000000000000000000000000000000 d
b0000000000 e
#8
b011 !
b00000000000000000000000000100000 "
b00000000000000000000000000000000 #
b00000000000000000000000000000000 $
b00000000000000000000000000000000 %
b00000000000000000000000000000000 &
b00000000000000000000000000000000 '
b00000000000000000000010000000001 (
b0000000000000101 )
b10001011001000000000000000000000 *
b0 +
b0 ,
b1 -
b0 .
b000 /
b0 0
b0 1
b1 2
b00000000000000000000000000100000 3
b1 4
b00100000000000000000000000000000 5
b00000000000000000000000000100000 6
b1 7
b0 8
b00000000000000000000000000000000 9
b0 :
b1 ;
b00100000000000000000000000000000 <
b0 =
b0 >
b00000000000000000000000000000000 ?
b0 @
b1 A
b00100000000000000000000000000000 B
b00000000000000000000000000100000 C
b0 D
b0 E
b00000000000000000000000000000000 F
b0 G
b1 H
b00100000000000000000000000000000 I
b00000000000000000000000000100000 J
b1 K
b0 L
b00000000000000000000000000000000 M
b0 N
b00000000000000000000000000000000 O
b0 P
b00000000000000000000000000100000 Q
b00100000000000000000000000000000 R
b1 S
b11111111111111111111111100110110 T
b0 U
b00000000000000000000000000000000 V
b00000000000000000000000000000000 W
b0 X
b00000000000000000000000100100011 Y
b0 Z
b00000000000000000000000000000000 [
b00000000000000000000000000000000 \
b0 ]
b000000000000 ^
b0 _
b1 `
b00000000000000000000000000000000 a
b11111111111111111111111100110110 b
b0000000110 c
b00000000000000000000000000000000 d
b0000000000 e
#9
b011 !
b00000000000000000000000000100000 "
b00000000000000000000000000000000 #
b00000000000000000000000000000000 $
b00000000000000000000000000000000 %
b00000000000000000000000000000000 &
b00000000000000000000000000000000 '
b00000000000000000000010000000001 (
b0000000000000101 )
b10001011001000000000000000000000 *
b0 +
b0 ,
b1 -
b0 .
b000 /
b0 0
b0 1
b1 2
b00000000000000000000000000100000 3
b0 4
b00000000000000000000000000000000 5
b00000000000000000000000000000000 6
b1 7
b0 8
b00000000000000000000000000000000 9
b0 :
b0 ;
b00000000000000000000000000000000 <
b0 =
b0 >
b00000000000000000000000000000000 ?
b0 @
b0 A
b00000000000000000000000000000000 B
b00000000000000000000000000000000 C
b0 D
b0 E
b00000000000000000000000000000000 F
b0 G
b0 H
b00100000000000000000000000000000 I
b00000000000000000000000000100000 J
b1 K
b0 L
b00000000000000000000000000000000 M
b0 N
b00000000000000000000000000000000 O
b0 P
b00000000000000000000000000000000 Q
b00000000000000000000000000000000 R
b0 S
b11111111111111111111111100110110 T
b0 U
b00000000000000000000000000000000 V
b00000000000000000000000000000000 W
b0 X
b00000000000000000000000100100011 Y
b0 Z
b00000000000000000000000000000000 [
b00000000000000000000000000000000 \
b0 ]
b000000100000 ^
b0 _
b1 `
b00000000000000000000000000000000 a
b11111111111111111111111100110110 b
b0000000111 c
b00000000000000000000000000000000 d
b0000000000 e
#10
b011 !
b00000000000000000000000000100000 "
b00000000000000000000000000000000 #
b00000000000000000000000000000000 $
b00000000000000000000000000000000 %
b00000000000000000000000000000000 &
b00000000000000000000000000000000 '
b00000000000000000000010000000001 (
b0000000000000101 )
b10001011001000000000000000000000 *
b0 +
b0 ,
b1 -
b0 .
b000 /
b0 0
b0 1
b1 2
b00000000000000000000000000100000 3
b0 4
b00000000000000000000000000000000 5
b00000000000000000000000000000000 6
b0 7
b0 8
b00000000000000000000000000000000 9
b0 :
b0 ;
b00000000000000000000000000000000 <
b0 =
b0 >
b00000000000000000000000000000000 ?
b0 @
b0 A
b00000000000000000000000000000000 B
b00000000000000000000000000000000 C
b0 D
b0 E
b00000000000000000000000000000000 F
b0 G
b0 H
b00100000000000000000000000000000 I
b00000000000000000000000000100000 J
b0 K
b0 L
b00000000000000000000000000000000 M
b0 N
b00000000000000000000000001010001 O
b0 P
b00000000000000000000000000000000 Q
b00000000000000000000000000000000 R
b0 S
b11111111111111111111111100110110 T
b0 U
b00000000000000000000000000000000 V
b00000000000000000000000000000000 W
b0 X
b00000000000000000000000100100011 Y
b0 Z
b00000000000000000000000000000000 [
b00000000000000000000000000000000 \
b0 ]
b000000100000 ^
b0 _
b1 `
b00000000000000000000000000000000 a
b11111111111111111111111100110110 b
b0000001000 c
b00000000000000000000000000000000 d
b0000000000 e
#11
b011 !
b00000000000000000000000000100000 "
b00000000000000000000000000000000 #
b00000000000000000000000000000000 $
b00000000000000000000000000000000 %
b00000000000000000000000000000000 &
b00000000000000000000000000000000 '
b00000000000000000000010000000001 (
b0000000000000101 )
b10001011001000000000000000000000 *
b0 +
b0 ,
b1 -
b0 .
b000 /
b0 0
b0 1
b1 2
b00000000000000000000000000100000 3
b0 4
b00000000000000000000000000000000 5
b00000000000000000000000000000000 6
b0 7
b0 8
b00000000000000000000000000000000 9
b0 :
b0 ;
b00000000000000000000000000000000 <
b0 =
b0 >
b00000000000000000000000000000000 ?
b0 @
b0 A
b00000000000000000000000000000000 B
b00000000000000000000000000000000 C
b0 D
b0 E
b00000000000000000000000000000000 F
b0 G
b0 H
b00100000000000000000000000000000 I
b00000000000000000000000000100000 J
b0 K
b0 L
b00000000000000000000000000000000 M
b0 N
b00000000000000000000000001010001 O
b0 P
b00000000000000000000000000000000 Q
b00000000000000000000000000000000 R
b0 S
b11111111111111111111111100110110 T
b0 U
b00000000000000000000000000000000 V
b00000000000000000000000000000000 W
b0 X
b00000000000000000000000100100011 Y
b0 Z
b00000000000000000000000000000000 [
b00000000000000000000000000000000 \
b0 ]
b000000100000 ^
b0 _
b1 `
b00000000000000000000000000000000 a
b11111111111111111111111100110110 b
b0000001001 c
b00000000000000000000000000000000 d
b0000000000 e
#12
b011 !
b00000000000000000000000000100000 "
b00000000000000000000000000000000 #
b00000000000000000000000000000000 $
b00000000000000000000000000000000 %
b00000000000000000000000000000000 &
b00000000000000000000000000000000 '
b00000000000000000000010000000001 (
b0000000000000101 )
b10001011001000000000000000000000 *
b0 +
b0 ,
b1 -
b0 .
b000 /
b0 0
b0 1
b1 2
b00000000000000000000000000100000 3
b0 4
b00000000000000000000000000000000 5
b00000000000000000000000000000000 6
b0 7
b0 8
b00000000000000000000000000000000 9
b0 :
b0 ;
b00000000000000000000000000000000 <
b0 =
b0 >
b00000000000000000000000000000000 ?
b0 @
b0 A
b00000000000000000000000000000000 B
b00000000000000000000000000000000 C
b0 D
b0 E
b00000000000000000000000000000000 F
b0 G
b0 H
b00100000000000000000000000000000 I
b00000000000000000000000000100000 J
b0 K
b0 L
b00000000000000000000000000000000 M
b0 N
b00000000000000000000000001010001 O
b1 P
b00000000000000000000000000000000 Q
b00000000000000000000000000000000 R
b0 S
b11111111111111111111111100111001 T
b0 U
b00000000000000000000000000000000 V
b00000000000000000000000000000000 W
b0 X
b00000000000000000000000100100011 Y
b0 Z
b00000000000000000000000000000000 [
b00000000000000000000000000000000 \
b0 ]
b000000100000 ^
b0 _
b1 `
b00000000000000000000000000000000 a
b11111111111111111111111100111001 b
b0000000000 c
b00000000000000000000000000000000 d
b0000000000 e
#13
b011 !
b00000000000000000000000000100000 "
b00000000000000000000000000000000 #
b00000000000000000000000000000000 $
b00000000000000000000000000000000 %
b00000000000000000000000000000000 &
b00000000000000000000000000000000 '
b00000000000000000000010000000001 (
b0000000000000101 )
b10001011001000000000000000000000 *
b0 +
b0 ,
b1 -
b0 .
b000 /
b0 0
b0 1
b1 2
b00000000000000000000000000100000 3
b0 4
b00000000000000000000000000000000 5
b00000000000000000000000000000000 6
b0 7
b1 8
b00000000000000000000000001010001 9
b0 :
b0 ;
b00000000000000000000000000000000 <
b0 =
b0 >
b00000000000000000000000000000000 ?
b0 @
b0 A
b00000000000000000000000000000000 B
b00000000000000000000000000000000 C
b0 D
b0 E
b00000000000000000000000000000000 F
b0 G
b0 H
b00100000000000000000000000000000 I
b00000000000000000000000000100000 J
b0 K
b1 L
b00000000000000000000000001010001 M
b0 N
b00000000000000000000000001010001 O
b0 P
b00000000000000000000000000000000 Q
b00000000000000000000000000000000 R
b0 S
b11111111111111111111111100111001 T
b0 U
b00000000000000000000000000000000 V
b00000000000000000000000000000000 W
b0 X
b00000000000000000000000100100011 Y
b0 Z
b00000000000000000000000000000000 [
b00000000000000000000000000000000 \
b0 ]
b000000100000 ^
b0 _
b1 `
b00000000000000000000000000000000 a
b11111111111111111111111100111001 b
b0000000001 c
b00000000000000000000000000000000 d
b0000000000 e
#14
b011 !
b00000000000000000000000000100000 "
b00000000000000000000000000000000 #
b00000000000000000000000000000000 $
b00000000000000000000000000000000 %
b00000000000000000000000000000000 &
b00000000000000000000000000000000 '
b00000000000000000000010000000001 (
b0000000000000101 )
b10001011001000000000000000000000 *
b0 +
b0 ,
b1 -
b0 .
b000 /
b1 0
b0 1
b0 2
b00000000000000000000000000100000 3
b0 4
b00000000000000000000000000000000 5
b00000000000000000000000000000000 6
b0 7
b1 8
b00000000000000000000000001010001 9
b1 :
b0 ;
b00000000000000000000000000000000 <
b0 =
b0 >
b00000000000000000000000000000000 ?
b1 @
b0 A
b00000000000000000000000000000000 B
b00000000000000000000000000000000 C
b0 D
b0 E
b00000000000000000000000000000000 F
b1 G
b0 H
b00000000000000000000000000000000 I
b00000000000000000000000000000000 J
b0 K
b1 L
b00000000000000000000000001010001 M
b1 N
b00000000000000000000000001010001 O
b0 P
b00000000000000000000000000000000 Q
b00000000000000000000000000000000 R
b0 S
b11111111111111111111111100111001 T
b0 U
b00000000000000000000000000000000 V
b00000000000000000000000000000000 W
b0 X
b00000000000000000000000100100011 Y
b0 Z
b00000000000000000000000000000000 [
b00000000000000000000000000000000 \
b0 ]
b000000000000 ^
b0 _
b1 `
b00000000000000000000000000000000 a
b11111111111111111111111100111001 b
b0000000010 c
b00000000000000000000000000000000 d
b0000000000 e
#15
b010 !
b00000000000000000000000000100000 "
b00000000000000000000000000000000 #
b00000000000000000000000001010001 $
b00000000000000000000000000000000 %
b00000000000000000000000000000000 &
b00000000000000000000000000000000 '
b00000000000000000000010000000001 (
b0000000000000110 )
b00001010010011000000000000000000 *
b0 +
b0 ,
b0 -
b0 .
b001 /
b1 0
b0 1
b0 2
b00000000000000000000000001010001 3
b0 4
b00000000000000000000000000000000 5
b00000000000000000000000000000000 6
b0 7
b0 8
b00000000000000000000000000000000 9
b0 :
b0 ;
b00000000000000000000000000000000 <
b0 =
b0 >
b00000000000000000000000000000000 ?
b0 @
b0 A
b00000000000000000000000000000000 B
b00000000000000000000000000000000 C
b0 D
b0 E
b00000000000000000000000000000000 F
b0 G
b0 H
b00000000000000000000000000000000 I
b00000000000000000000000000000000 J
b0 K
b0 L
b00000000000000000000000000000000 M
b0 N
b00000000000000000000000000000000 O
b0 P
b00000000000000000000000000000000 Q
b00000000000000000000000000000000 R
b0 S
b11111111111111111111111100111001 T
b0 U
b00000000000000000000000000000000 V
b00000000000000000000000000000000 W
b0 X
b00000000000000000000000100100011 Y
b0 Z
b00000000000000000000000000000000 [
b00000000000000000000000000000000 \
b0 ]
b000000000000 ^
b0 _
b1 `
b00000000000000000000000000000000 a
b11111111111111111111111100111001 b
b0000000011 c
b00000000000000000000000000000000 d
b0000000000 e
#16
b001 !
b00000000000000000000000000100000 "
b00000000000000000000000001010001 #
b00000000000000000000000001010001 $
b00000000000000000000000000000000 %
b00000000000000000000000000000000 &
b00000000000000000000000000000000 '
b00000000000000000000010000000001 (
b0000000000000111 )
b01010001001000000000010000000000 *
b0 +
b0 ,
b0 -
b0 .
b010 /
b1 0
b1 1
b0 2
b00000000000000000000000000011111 3
b0 4
b00000000000000000000000000000000 5
b00000000000000000000000000000000 6
b0 7
b0 8
b00000000000000000000000000000000 9
b0 :
b0 ;
b00000000000000000000000000000000 <
b0 =
b0 >
b00000000000000000000000000000000 ?
b0 @
b0 A
b00000000000000000000000000000000 B
b00000000000000000000000000000000 C
b0 D
b0 E
b00000000000000000000000000000000 F
b0 G
b0 H
b00100000000000000000000000000000 I
b00000000000000000000000000000000 J
b0 K
b0 L
b00000000000000000000000000000000 M
b0 N
b00000000000000000000000000000000 O
b0 P
b00000000000000000000000000000000 Q
b00000000000000000000000000000000 R
b0 S
b11111111111111111111111100111001 T
b0 U
b00000000000000000000000000000000 V
b00000000000000000000000000000000 W
b0 X
b00000000000000000000000100100011 Y
b0 Z
b00000000000000000000000000000000 [
b00000000000000000000000000000000 \
b0 ]
b000000000000 ^
b0 _
b1 `
b00000000000000000000000000000000 a
b11111111111111111111111100111001 b
b0000000100 c
b00000000000000000000000000000000 d
b0000000000 e
#17
b000 !
b00000000000000000000000000011111 "
b00000000000000000000000001010001 #
b00000000000000000000000001010001 $
b00000000000000000000000000000000 %
b00000000000000000000000000000000 &
b00000000000000000000000000000000 '
b00000000000000000000010000000001 (
b0000000000001000 )
b11010000000000000101000000000000 *
b0 +
b0 ,
b0 -
b0 .
b000 /
b0 0
b0 1
b0 2
b00000000000000000000000000000000 3
b0 4
b00000000000000000000000000000000 5
b00000000000000000000000000000000 6
b0 7
b0 8
b00000000000000000000000000000000 9
b0 :
b0 ;
b00000000000000000000000000000000 <
b0 =
b0 >
b00000000000000000000000000000000 ?
b0 @
b0 A
b00000000000000000000000000000000 B
b00000000000000000000000000000000 C
b0 D
b0 E
b00000000000000000000000000000000 F
b0 G
b0 H
b00100000000000000000000000000000 I
b00000000000000000000000000100000 J
b0 K
b0 L
b00000000000000000000000000000000 M
b0 N
b00000000000000000000000000000000 O
b0 P
b00000000000000000000000000000000 Q
b00000000000000000000000000000000 R
b0 S
b11111111111111111111111100111001 T
b0 U
b00000000000000000000000000000000 V
b00000000000000000000000000000000 W
b0 X
b00000000000000000000000100100011 Y
b0 Z
b00000000000000000000000000000000 [
b00000000000000000000000000000000 \
b0 ]
b000000000000 ^
b0 _
b1 `
b00000000000000000000000000000000 a
b11111111111111111111111100111001 b
b0000000101 c
b00000000000000000000000000000000 d
b0000000000 e
#18
b000 !
b00000000000000000000000000011111 "
b00000000000000000000000001010001 #
b00000000000000000000000001010001 $
b00000000000000000000000000000000 %
b00000000000000000000000000000000 &
b00000000000000000000000000000000 '
b00000000000000000000010000000001 (
b0000000000001001 )
b11001000000000000010100000000000 *
b1 +
b0 ,
b0 -
b1 .
b000 /
b0 0
b0 1
b0 2
b00000000000000000000000000000000 3
b0 4
b00000000000000000000000000000000 5
b00000000000000000000000000000000 6
b0 7
b0 8
b00000000000000000000000000000000 9
b0 :
b0 ;
b00000000000000000000000000000000 <
b0 =
b0 >
b00000000000000000000000000000000 ?
b0 @
b0 A
b00000000000000000000000000000000 B
b00000000000000000000000000000000 C
b0 D
b0 E
b00000000000000000000000000000000 F
b0 G
b0 H
b00100000000000000000000000000000 I
b00000000000000000000000000000000 J
b0 K
b0 L
b00000000000000000000000000000000 M
b0 N
b00000000000000000000000000000000 O
b0 P
b00000000000000000000000000000000 Q
b00000000000000000000000000000000 R
b0 S
b11111111111111111111111100111001 T
b0 U
b00000000000000000000000000000000 V
b00000000000000000000000000000000 W
b0 X
b00000000000000000000000100100011 Y
b0 Z
b00000000000000000000000000000000 [
b00000000000000000000000000000000 \
b0 ]
b000000000000 ^
b0 _
b1 `
b00000000000000000000000000000000 a
b11111111111111111111111100111001 b
b0000000110 c
b00000000000000000000000000000000 d
b0000000000 e
#19
b011 !
b00000000000000000000000000011111 "
b00000000000000000000000001010001 #
b00000000000000000000000001010001 $
b00000000000000000000000000000000 %
b00000000000000000000000000000000 &
b00000000000000000000000000000000 '
b00000000000000000000010000000001 (
b0000000000000101 )
b10001011001000000000000000000000 *
b1 +
b0 ,
b1 -
b0 .
b000 /
b0 0
b0 1
b1 2
b00000000000000000000000000011111 3
b0 4
b00000000000000000000000000000000 5
b00000000000000000000000000000000 6
b0 7
b0 8
b00000000000000000000000000000000 9
b0 :
b0 ;
b00000000000000000000000000000000 <
b0 =
b0 >
b00000000000000000000000000000000 ?
b0 @
b0 A
b00000000000000000000000000000000 B
b00000000000000000000000000000000 C
b0 D
b0 E
b00000000000000000000000000000000 F
b0 G
b0 H
b00100000000000000000000000000000 I
b00000000000000000000000000000000 J
b0 K
b0 L
b00000000000000000000000000000000 M
b0 N
b00000000000000000000000000000000 O
b0 P
b00000000000000000000000000000000 Q
b00000000000000000000000000000000 R
b0 S
b11111111111111111111111100111001 T
b0 U
b00000000000000000000000000000000 V
b00000000000000000000000000000000 W
b0 X
b00000000000000000000000100100011 Y
b0 Z
b00000000000000000000000000000000 [
b00000000000000000000000000000000 \
b0 ]
b000000000000 ^
b0 _
b1 `
b00000000000000000000000000000000 a
b11111111111111111111111100111001 b
b0000000111 c
b00000000000000000000000000000000 d
b0000000000 e
