TRACE.vcd
$var reg 	3 !	Registerfile.storesel  $end
$var reg 	32 "	Registerfile.two  $end
$var reg 	32 #	Registerfile.three  $end
$var reg 	16 $	PC.a  $end
$var reg 	1 %	CPU.zero  $end
$var reg 	1 &	CPU.neg  $end
$var reg 	1 '	CPU.jflag  $end
$var reg 	3 (	CPU.alufunc  $end
$var reg 	1 )	CPU.storeflag  $end
$var reg 	1 *	bus.reqDataMem  $end
$var reg 	32 +	bus.cmdDataMem  $end
$var reg 	32 ,	bus.datainDataMem  $end
$var reg 	1 -	bus.ackDataMem  $end
$var reg 	1 .	bus.dataRdyDataMem  $end
$var reg 	32 /	bus.dataoutDataMem  $end
$var reg 	1 0	bus.waitDataMem  $end
$var reg 	1 1	bus.reqSensor  $end
$var reg 	32 2	bus.cmdSensor  $end
$var reg 	1 3	bus.ackSensor  $end
$var reg 	1 4	bus.dataRdySensor  $end
$var reg 	32 5	bus.dataoutSensor  $end
$var reg 	1 6	bus.waitSensor  $end
$var reg 	1 7	bus.reqOutput  $end
$var reg 	32 8	bus.cmdOutput  $end
$var reg 	32 9	bus.datainOutput  $end
$var reg 	1 :	bus.ackOutput  $end
$var reg 	1 ;	bus.dataRdyOutput  $end
$var reg 	32 <	bus.dataoutOutput  $end
$var reg 	1 =	bus.waitOutput  $end
$var reg 	1 >	bus.reqCPU  $end
$var reg 	32 ?	bus.cmdCPU  $end
$var reg 	32 @	bus.dataoutCPU  $end
$var reg 	1 A	bus.ackCPU  $end
$var reg 	1 B	bus.dataRdyCPU  $end
$var reg 	32 C	bus.datainCPU  $end
$var reg 	1 D	bus.waitCPU  $end
$var reg 	32 E	bus_toplevel.DM_datain  $end
$var reg 	1 F	bus_toplevel.DM_datainrdy  $end
$var reg 	32 G	bus_toplevel.DM_dataout  $end
$var reg 	32 H	bus_toplevel.DM_cmdout  $end
$var reg 	1 I	bus_toplevel.DM_dataoutrdy  $end
$var reg 	32 J	bus_toplevel.SS_datain  $end
$var reg 	1 K	bus_toplevel.SS_datainrdy  $end
$var reg 	32 L	bus_toplevel.SS_dataout  $end
$var reg 	32 M	bus_toplevel.SS_cmdout  $end
$var reg 	1 N	bus_toplevel.SS_dataoutrdy  $end
$var reg 	32 O	bus_toplevel.OP_datain  $end
$var reg 	1 P	bus_toplevel.OP_datainrdy  $end
$var reg 	32 Q	bus_toplevel.OP_dataout  $end
$var reg 	32 R	bus_toplevel.OP_cmdout  $end
$var reg 	1 S	bus_toplevel.OP_dataoutrdy  $end
$var reg 	12 T	DataMem.address  $end
$var reg 	1 U	DataMem.wr  $end
$var reg 	1 V	DataMem.rd  $end
$var reg 	32 W	DataMem.idata  $end
$var reg 	32 X	Sensor.odata  $end
$var reg 	10 Y	Sensor.c  $end
$var reg 	32 Z	Output.FilterOut  $end
$var reg 	10 [	Output.count  $end
$enddefinitions $end 
$enddefinitions $end 
#1
b001 !
b00000000000000000000000000000000 "
b00000000000000000000000000000000 #
b0000000000000000 $
b0 %
b0 &
b0 '
b010 (
b1 )
b0 *
b00000000000000000000000000000000 +
b00000000000000000000000000000000 ,
b0 -
b0 .
b00000000000000000000000000000000 /
b0 0
b0 1
b00000000000000000000000000000000 2
b0 3
b0 4
b00000000000000000000000000000000 5
b0 6
b0 7
b00000000000000000000000000000000 8
b00000000000000000000000000000000 9
b0 :
b0 ;
b00000000000000000000000000000000 <
b0 =
b0 >
b00000000000000000000000000000000 ?
b00000000000000000000000000000000 @
b0 A
b0 B
b00000000000000000000000000000000 C
b0 D
b00000000000000000000000000000000 E
b0 F
b00000000000000000000000000000000 G
b00000000000000000000000000000000 H
b0 I
b11111111111111111111111100110110 J
b0 K
b00000000000000000000000000000000 L
b00000000000000000000000000000000 M
b0 N
b00000000000000000000000100100011 O
b0 P
b00000000000000000000000000000000 Q
b00000000000000000000000000000000 R
b0 S
b000000000000 T
b0 U
b1 V
b00000000000000000000000000000000 W
b11111111111111111111111100110110 X
b0000000000 Y
b00000000000000000000000000000000 Z
b0000000000 [
#2
b010 !
b00000000000000000000000000000000 "
b00000000000000000000000000000000 #
b0000000000000001 $
b1 %
b0 &
b0 '
b010 (
b1 )
b0 *
b00000000000000000000000000000000 +
b00000000000000000000000000000000 ,
b0 -
b0 .
b00000000000000000000000000000000 /
b0 0
b0 1
b00000000000000000000000000000000 2
b0 3
b0 4
b00000000000000000000000000000000 5
b0 6
b0 7
b00000000000000000000000000000000 8
b00000000000000000000000000000000 9
b0 :
b0 ;
b00000000000000000000000000000000 <
b0 =
b0 >
b00100000000000000000000000000000 ?
b00000000000000000000000000000000 @
b0 A
b0 B
b00000000000000000000000000000000 C
b0 D
b00000000000000000000000000000000 E
b0 F
b00000000000000000000000000000000 G
b00000000000000000000000000000000 H
b0 I
b11111111111111111111111100110110 J
b0 K
b00000000000000000000000000000000 L
b00000000000000000000000000000000 M
b0 N
b00000000000000000000000100100011 O
b0 P
b00000000000000000000000000000000 Q
b00000000000000000000000000000000 R
b0 S
b000000000000 T
b0 U
b1 V
b00000000000000000000000000000000 W
b11111111111111111111111100110110 X
b0000000000 Y
b00000000000000000000000000000000 Z
b0000000000 [
#3
b011 !
b00000000000000000000000000000000 "
b00000000000000000000000000000000 #
b0000000000000010 $
b1 %
b0 &
b0 '
b010 (
b1 )
b0 *
b00000000000000000000000000000000 +
b00000000000000000000000000000000 ,
b0 -
b0 .
b00000000000000000000000000000000 /
b0 0
b0 1
b00000000000000000000000000000000 2
b0 3
b0 4
b00000000000000000000000000000000 5
b0 6
b0 7
b00000000000000000000000000000000 8
b00000000000000000000000000000000 9
b0 :
b0 ;
b00000000000000000000000000000000 <
b0 =
b0 >
b00100000000000000000000000000000 ?
b00000000000000000000000000000000 @
b0 A
b0 B
b00000000000000000000000000000000 C
b0 D
b00000000000000000000000000000000 E
b0 F
b00000000000000000000000000000000 G
b00000000000000000000000000000000 H
b0 I
b11111111111111111111111100110110 J
b0 K
b00000000000000000000000000000000 L
b00000000000000000000000000000000 M
b0 N
b00000000000000000000000100100011 O
b0 P
b00000000000000000000000000000000 Q
b00000000000000000000000000000000 R
b0 S
b000000000000 T
b0 U
b1 V
b00000000000000000000000000000000 W
b11111111111111111111111100110110 X
b0000000001 Y
b00000000000000000000000000000000 Z
b0000000000 [
#4
b001 !
b00000000000000000000000000000000 "
b00000000000000000000000000000000 #
b0000000000000011 $
b1 %
b0 &
b0 '
b001 (
b1 )
b0 *
b00000000000000000000000000000000 +
b00000000000000000000000000000000 ,
b0 -
b0 .
b00000000000000000000000000000000 /
b0 0
b0 1
b00000000000000000000000000000000 2
b0 3
b0 4
b00000000000000000000000000000000 5
b0 6
b0 7
b00000000000000000000000000000000 8
b00000000000000000000000000000000 9
b0 :
b0 ;
b00000000000000000000000000000000 <
b0 =
b0 >
b00100000000000000000000000000000 ?
b00000000000000000000000000000000 @
b0 A
b0 B
b00000000000000000000000000000000 C
b0 D
b00000000000000000000000000000000 E
b0 F
b00000000000000000000000000000000 G
b00000000000000000000000000000000 H
b0 I
b11111111111111111111111100110110 J
b0 K
b00000000000000000000000000000000 L
b00000000000000000000000000000000 M
b0 N
b00000000000000000000000100100011 O
b0 P
b00000000000000000000000000000000 Q
b00000000000000000000000000000000 R
b0 S
b000000000000 T
b0 U
b1 V
b00000000000000000000000000000000 W
b11111111111111111111111100110110 X
b0000000010 Y
b00000000000000000000000000000000 Z
b0000000000 [
#5
b111 !
b00000000000000000000000000100000 "
b00000000000000000000000000000000 #
b0000000000000100 $
b0 %
b0 &
b0 '
b001 (
b1 )
b0 *
b00000000000000000000000000000000 +
b00000000000000000000000000000000 ,
b0 -
b0 .
b00000000000000000000000000000000 /
b0 0
b0 1
b00000000000000000000000000000000 2
b0 3
b0 4
b00000000000000000000000000000000 5
b0 6
b0 7
b00000000000000000000000000000000 8
b00000000000000000000000000000000 9
b0 :
b0 ;
b00000000000000000000000000000000 <
b0 =
b0 >
b00100000000000000000000000000000 ?
b00000000000000000000000000000000 @
b0 A
b0 B
b00000000000000000000000000000000 C
b0 D
b00000000000000000000000000000000 E
b0 F
b00000000000000000000000000000000 G
b00000000000000000000000000000000 H
b0 I
b11111111111111111111111100110110 J
b0 K
b00000000000000000000000000000000 L
b00000000000000000000000000000000 M
b0 N
b00000000000000000000000100100011 O
b0 P
b00000000000000000000000000000000 Q
b00000000000000000000000000000000 R
b0 S
b000000000000 T
b0 U
b1 V
b00000000000000000000000000000000 W
b11111111111111111111111100110110 X
b0000000011 Y
b00000000000000000000000000000000 Z
b0000000000 [
#6
b011 !
b00000000000000000000000000100000 "
b00000000000000000000000000000000 #
b0000000000000101 $
b0 %
b0 &
b0 '
b000 (
b0 )
b0 *
b00000000000000000000000000000000 +
b00000000000000000000000000000000 ,
b0 -
b0 .
b00000000000000000000000000000000 /
b0 0
b0 1
b00000000000000000000000000000000 2
b0 3
b0 4
b00000000000000000000000000000000 5
b0 6
b0 7
b00000000000000000000000000000000 8
b00000000000000000000000000000000 9
b0 :
b0 ;
b00000000000000000000000000000000 <
b0 =
b0 >
b00100000000000000000000000000000 ?
b00000000000000000000000000000000 @
b0 A
b0 B
b00000000000000000000000000000000 C
b0 D
b00000000000000000000000000000000 E
b0 F
b00000000000000000000000000000000 G
b00000000000000000000000000000000 H
b0 I
b11111111111111111111111100110110 J
b0 K
b00000000000000000000000000000000 L
b00000000000000000000000000000000 M
b0 N
b00000000000000000000000100100011 O
b0 P
b00000000000000000000000000000000 Q
b00000000000000000000000000000000 R
b0 S
b000000000000 T
b0 U
b1 V
b00000000000000000000000000000000 W
b11111111111111111111111100110110 X
b0000000100 Y
b00000000000000000000000000000000 Z
b0000000000 [
#7
b011 !
b00000000000000000000000000100000 "
b00000000000000000000000000000000 #
b0000000000000101 $
b0 %
b0 &
b0 '
b000 (
b0 )
b1 *
b00100000000000000000000000000000 +
b00000000000000000000000000100000 ,
b0 -
b0 .
b00000000000000000000000000000000 /
b0 0
b1 1
b00100000000000000000000000000000 2
b0 3
b0 4
b00000000000000000000000000000000 5
b0 6
b1 7
b00100000000000000000000000000000 8
b00000000000000000000000000100000 9
b0 :
b0 ;
b00000000000000000000000000000000 <
b0 =
b1 >
b00100000000000000000000000000000 ?
b00000000000000000000000000100000 @
b0 A
b0 B
b00000000000000000000000000000000 C
b0 D
b00000000000000000000000000000000 E
b0 F
b00000000000000000000000000000000 G
b00000000000000000000000000000000 H
b0 I
b11111111111111111111111100110110 J
b0 K
b00000000000000000000000000000000 L
b00000000000000000000000000000000 M
b0 N
b00000000000000000000000100100011 O
b0 P
b00000000000000000000000000000000 Q
b00000000000000000000000000000000 R
b0 S
b000000000000 T
b0 U
b1 V
b00000000000000000000000000000000 W
b11111111111111111111111100110110 X
b0000000101 Y
b00000000000000000000000000000000 Z
b0000000000 [
#8
b011 !
b00000000000000000000000000100000 "
b00000000000000000000000000000000 #
b0000000000000101 $
b0 %
b0 &
b0 '
b000 (
b0 )
b1 *
b00100000000000000000000000000000 +
b00000000000000000000000000100000 ,
b1 -
b0 .
b00000000000000000000000000000000 /
b0 0
b1 1
b00100000000000000000000000000000 2
b0 3
b0 4
b00000000000000000000000000000000 5
b0 6
b1 7
b00100000000000000000000000000000 8
b00000000000000000000000000100000 9
b0 :
b0 ;
b00000000000000000000000000000000 <
b0 =
b1 >
b00100000000000000000000000000000 ?
b00000000000000000000000000100000 @
b1 A
b0 B
b00000000000000000000000000000000 C
b0 D
b00000000000000000000000000000000 E
b0 F
b00000000000000000000000000100000 G
b00100000000000000000000000000000 H
b1 I
b11111111111111111111111100110110 J
b0 K
b00000000000000000000000000000000 L
b00000000000000000000000000000000 M
b0 N
b00000000000000000000000100100011 O
b0 P
b00000000000000000000000000000000 Q
b00000000000000000000000000000000 R
b0 S
b000000000000 T
b0 U
b1 V
b00000000000000000000000000000000 W
b11111111111111111111111100110110 X
b0000000110 Y
b00000000000000000000000000000000 Z
b0000000000 [
#9
b011 !
b00000000000000000000000000100000 "
b00000000000000000000000000000000 #
b0000000000000101 $
b0 %
b0 &
b0 '
b000 (
b0 )
b0 *
b00000000000000000000000000000000 +
b00000000000000000000000000000000 ,
b1 -
b0 .
b00000000000000000000000000000000 /
b0 0
b0 1
b00000000000000000000000000000000 2
b0 3
b0 4
b00000000000000000000000000000000 5
b0 6
b0 7
b00000000000000000000000000000000 8
b00000000000000000000000000000000 9
b0 :
b0 ;
b00000000000000000000000000000000 <
b0 =
b0 >
b00100000000000000000000000000000 ?
b00000000000000000000000000100000 @
b1 A
b0 B
b00000000000000000000000000000000 C
b0 D
b00000000000000000000000000000000 E
b0 F
b00000000000000000000000000000000 G
b00000000000000000000000000000000 H
b0 I
b11111111111111111111111100110110 J
b0 K
b00000000000000000000000000000000 L
b00000000000000000000000000000000 M
b0 N
b00000000000000000000000100100011 O
b0 P
b00000000000000000000000000000000 Q
b00000000000000000000000000000000 R
b0 S
b000000100000 T
b0 U
b1 V
b00000000000000000000000000000000 W
b11111111111111111111111100110110 X
b0000000111 Y
b00000000000000000000000000000000 Z
b0000000000 [
#10
b011 !
b00000000000000000000000000100000 "
b00000000000000000000000000000000 #
b0000000000000101 $
b0 %
b0 &
b0 '
b000 (
b0 )
b0 *
b00000000000000000000000000000000 +
b00000000000000000000000000000000 ,
b0 -
b0 .
b00000000000000000000000000000000 /
b0 0
b0 1
b00000000000000000000000000000000 2
b0 3
b0 4
b00000000000000000000000000000000 5
b0 6
b0 7
b00000000000000000000000000000000 8
b00000000000000000000000000000000 9
b0 :
b0 ;
b00000000000000000000000000000000 <
b0 =
b0 >
b00100000000000000000000000000000 ?
b00000000000000000000000000100000 @
b0 A
b0 B
b00000000000000000000000000000000 C
b0 D
b00000000000000000000000001010001 E
b0 F
b00000000000000000000000000000000 G
b00000000000000000000000000000000 H
b0 I
b11111111111111111111111100110110 J
b0 K
b00000000000000000000000000000000 L
b00000000000000000000000000000000 M
b0 N
b00000000000000000000000100100011 O
b0 P
b00000000000000000000000000000000 Q
b00000000000000000000000000000000 R
b0 S
b000000100000 T
b0 U
b1 V
b00000000000000000000000000000000 W
b11111111111111111111111100110110 X
b0000001000 Y
b00000000000000000000000000000000 Z
b0000000000 [
#11
b011 !
b00000000000000000000000000100000 "
b00000000000000000000000000000000 #
b0000000000000101 $
b0 %
b0 &
b0 '
b000 (
b0 )
b0 *
b00000000000000000000000000000000 +
b00000000000000000000000000000000 ,
b0 -
b0 .
b00000000000000000000000000000000 /
b0 0
b0 1
b00000000000000000000000000000000 2
b0 3
b0 4
b00000000000000000000000000000000 5
b0 6
b0 7
b00000000000000000000000000000000 8
b00000000000000000000000000000000 9
b0 :
b0 ;
b00000000000000000000000000000000 <
b0 =
b0 >
b00100000000000000000000000000000 ?
b00000000000000000000000000100000 @
b0 A
b0 B
b00000000000000000000000000000000 C
b0 D
b00000000000000000000000001010001 E
b0 F
b00000000000000000000000000000000 G
b00000000000000000000000000000000 H
b0 I
b11111111111111111111111100110110 J
b0 K
b00000000000000000000000000000000 L
b00000000000000000000000000000000 M
b0 N
b00000000000000000000000100100011 O
b0 P
b00000000000000000000000000000000 Q
b00000000000000000000000000000000 R
b0 S
b000000100000 T
b0 U
b1 V
b00000000000000000000000000000000 W
b11111111111111111111111100110110 X
b0000001001 Y
b00000000000000000000000000000000 Z
b0000000000 [
#12
b011 !
b00000000000000000000000000100000 "
b00000000000000000000000000000000 #
b0000000000000101 $
b0 %
b0 &
b0 '
b000 (
b0 )
b0 *
b00000000000000000000000000000000 +
b00000000000000000000000000000000 ,
b0 -
b0 .
b00000000000000000000000000000000 /
b0 0
b0 1
b00000000000000000000000000000000 2
b0 3
b0 4
b00000000000000000000000000000000 5
b0 6
b0 7
b00000000000000000000000000000000 8
b00000000000000000000000000000000 9
b0 :
b0 ;
b00000000000000000000000000000000 <
b0 =
b0 >
b00100000000000000000000000000000 ?
b00000000000000000000000000100000 @
b0 A
b0 B
b00000000000000000000000000000000 C
b0 D
b00000000000000000000000001010001 E
b1 F
b00000000000000000000000000000000 G
b00000000000000000000000000000000 H
b0 I
b11111111111111111111111100111001 J
b0 K
b00000000000000000000000000000000 L
b00000000000000000000000000000000 M
b0 N
b00000000000000000000000100100011 O
b0 P
b00000000000000000000000000000000 Q
b00000000000000000000000000000000 R
b0 S
b000000100000 T
b0 U
b1 V
b00000000000000000000000000000000 W
b11111111111111111111111100111001 X
b0000000000 Y
b00000000000000000000000000000000 Z
b0000000000 [
#13
b011 !
b00000000000000000000000000100000 "
b00000000000000000000000000000000 #
b0000000000000101 $
b0 %
b0 &
b0 '
b000 (
b0 )
b0 *
b00000000000000000000000000000000 +
b00000000000000000000000000000000 ,
b0 -
b1 .
b00000000000000000000000001010001 /
b0 0
b0 1
b00000000000000000000000000000000 2
b0 3
b0 4
b00000000000000000000000000000000 5
b0 6
b0 7
b00000000000000000000000000000000 8
b00000000000000000000000000000000 9
b0 :
b0 ;
b00000000000000000000000000000000 <
b0 =
b0 >
b00100000000000000000000000000000 ?
b00000000000000000000000000100000 @
b0 A
b1 B
b00000000000000000000000001010001 C
b0 D
b00000000000000000000000001010001 E
b0 F
b00000000000000000000000000000000 G
b00000000000000000000000000000000 H
b0 I
b11111111111111111111111100111001 J
b0 K
b00000000000000000000000000000000 L
b00000000000000000000000000000000 M
b0 N
b00000000000000000000000100100011 O
b0 P
b00000000000000000000000000000000 Q
b00000000000000000000000000000000 R
b0 S
b000000100000 T
b0 U
b1 V
b00000000000000000000000000000000 W
b11111111111111111111111100111001 X
b0000000001 Y
b00000000000000000000000000000000 Z
b0000000000 [
#14
b011 !
b00000000000000000000000000100000 "
b00000000000000000000000000000000 #
b0000000000000101 $
b0 %
b0 &
b0 '
b000 (
b1 )
b0 *
b00000000000000000000000000000000 +
b00000000000000000000000000000000 ,
b0 -
b1 .
b00000000000000000000000001010001 /
b1 0
b0 1
b00000000000000000000000000000000 2
b0 3
b0 4
b00000000000000000000000000000000 5
b1 6
b0 7
b00000000000000000000000000000000 8
b00000000000000000000000000000000 9
b0 :
b0 ;
b00000000000000000000000000000000 <
b1 =
b0 >
b00000000000000000000000000000000 ?
b00000000000000000000000000000000 @
b0 A
b1 B
b00000000000000000000000001010001 C
b1 D
b00000000000000000000000001010001 E
b0 F
b00000000000000000000000000000000 G
b00000000000000000000000000000000 H
b0 I
b11111111111111111111111100111001 J
b0 K
b00000000000000000000000000000000 L
b00000000000000000000000000000000 M
b0 N
b00000000000000000000000100100011 O
b0 P
b00000000000000000000000000000000 Q
b00000000000000000000000000000000 R
b0 S
b000000000000 T
b0 U
b1 V
b00000000000000000000000000000000 W
b11111111111111111111111100111001 X
b0000000010 Y
b00000000000000000000000000000000 Z
b0000000000 [
#15
b010 !
b00000000000000000000000000100000 "
b00000000000000000000000000000000 #
b0000000000000110 $
b0 %
b0 &
b0 '
b001 (
b1 )
b0 *
b00000000000000000000000000000000 +
b00000000000000000000000000000000 ,
b0 -
b0 .
b00000000000000000000000000000000 /
b0 0
b0 1
b00000000000000000000000000000000 2
b0 3
b0 4
b00000000000000000000000000000000 5
b0 6
b0 7
b00000000000000000000000000000000 8
b00000000000000000000000000000000 9
b0 :
b0 ;
b00000000000000000000000000000000 <
b0 =
b0 >
b00000000000000000000000000000000 ?
b00000000000000000000000000000000 @
b0 A
b0 B
b00000000000000000000000000000000 C
b0 D
b00000000000000000000000000000000 E
b0 F
b00000000000000000000000000000000 G
b00000000000000000000000000000000 H
b0 I
b11111111111111111111111100111001 J
b0 K
b00000000000000000000000000000000 L
b00000000000000000000000000000000 M
b0 N
b00000000000000000000000100100011 O
b0 P
b00000000000000000000000000000000 Q
b00000000000000000000000000000000 R
b0 S
b000000000000 T
b0 U
b1 V
b00000000000000000000000000000000 W
b11111111111111111111111100111001 X
b0000000011 Y
b00000000000000000000000000000000 Z
b0000000000 [
#16
b001 !
b00000000000000000000000000100000 "
b00000000000000000000000001010001 #
b0000000000000111 $
b0 %
b0 &
b0 '
b010 (
b1 )
b0 *
b00000000000000000000000000000000 +
b00000000000000000000000000000000 ,
b0 -
b0 .
b00000000000000000000000000000000 /
b0 0
b0 1
b00000000000000000000000000000000 2
b0 3
b0 4
b00000000000000000000000000000000 5
b0 6
b0 7
b00000000000000000000000000000000 8
b00000000000000000000000000000000 9
b0 :
b0 ;
b00000000000000000000000000000000 <
b0 =
b0 >
b00100000000000000000000000000000 ?
b00000000000000000000000000000000 @
b0 A
b0 B
b00000000000000000000000000000000 C
b0 D
b00000000000000000000000000000000 E
b0 F
b00000000000000000000000000000000 G
b00000000000000000000000000000000 H
b0 I
b11111111111111111111111100111001 J
b0 K
b00000000000000000000000000000000 L
b00000000000000000000000000000000 M
b0 N
b00000000000000000000000100100011 O
b0 P
b00000000000000000000000000000000 Q
b00000000000000000000000000000000 R
b0 S
b000000000000 T
b0 U
b1 V
b00000000000000000000000000000000 W
b11111111111111111111111100111001 X
b0000000100 Y
b00000000000000000000000000000000 Z
b0000000000 [
#17
b000 !
b00000000000000000000000000011111 "
b00000000000000000000000001010001 #
b0000000000001000 $
b0 %
b0 &
b0 '
b000 (
b0 )
b0 *
b00000000000000000000000000000000 +
b00000000000000000000000000000000 ,
b0 -
b0 .
b00000000000000000000000000000000 /
b0 0
b0 1
b00000000000000000000000000000000 2
b0 3
b0 4
b00000000000000000000000000000000 5
b0 6
b0 7
b00000000000000000000000000000000 8
b00000000000000000000000000000000 9
b0 :
b0 ;
b00000000000000000000000000000000 <
b0 =
b0 >
b00100000000000000000000000000000 ?
b00000000000000000000000000100000 @
b0 A
b0 B
b00000000000000000000000000000000 C
b0 D
b00000000000000000000000000000000 E
b0 F
b00000000000000000000000000000000 G
b00000000000000000000000000000000 H
b0 I
b11111111111111111111111100111001 J
b0 K
b00000000000000000000000000000000 L
b00000000000000000000000000000000 M
b0 N
b00000000000000000000000100100011 O
b0 P
b00000000000000000000000000000000 Q
b00000000000000000000000000000000 R
b0 S
b000000000000 T
b0 U
b1 V
b00000000000000000000000000000000 W
b11111111111111111111111100111001 X
b0000000101 Y
b00000000000000000000000000000000 Z
b0000000000 [
#18
b000 !
b00000000000000000000000000011111 "
b00000000000000000000000001010001 #
b0000000000001001 $
b1 %
b0 &
b1 '
b000 (
b0 )
b0 *
b00000000000000000000000000000000 +
b00000000000000000000000000000000 ,
b0 -
b0 .
b00000000000000000000000000000000 /
b0 0
b0 1
b00000000000000000000000000000000 2
b0 3
b0 4
b00000000000000000000000000000000 5
b0 6
b0 7
b00000000000000000000000000000000 8
b00000000000000000000000000000000 9
b0 :
b0 ;
b00000000000000000000000000000000 <
b0 =
b0 >
b00100000000000000000000000000000 ?
b00000000000000000000000000000000 @
b0 A
b0 B
b00000000000000000000000000000000 C
b0 D
b00000000000000000000000000000000 E
b0 F
b00000000000000000000000000000000 G
b00000000000000000000000000000000 H
b0 I
b11111111111111111111111100111001 J
b0 K
b00000000000000000000000000000000 L
b00000000000000000000000000000000 M
b0 N
b00000000000000000000000100100011 O
b0 P
b00000000000000000000000000000000 Q
b00000000000000000000000000000000 R
b0 S
b000000000000 T
b0 U
b1 V
b00000000000000000000000000000000 W
b11111111111111111111111100111001 X
b0000000110 Y
b00000000000000000000000000000000 Z
b0000000000 [
#19
b011 !
b00000000000000000000000000011111 "
b00000000000000000000000001010001 #
b0000000000000101 $
b1 %
b0 &
b0 '
b000 (
b0 )
b0 *
b00000000000000000000000000000000 +
b00000000000000000000000000000000 ,
b0 -
b0 .
b00000000000000000000000000000000 /
b0 0
b0 1
b00000000000000000000000000000000 2
b0 3
b0 4
b00000000000000000000000000000000 5
b0 6
b0 7
b00000000000000000000000000000000 8
b00000000000000000000000000000000 9
b0 :
b0 ;
b00000000000000000000000000000000 <
b0 =
b0 >
b00100000000000000000000000000000 ?
b00000000000000000000000000000000 @
b0 A
b0 B
b00000000000000000000000000000000 C
b0 D
b00000000000000000000000000000000 E
b0 F
b00000000000000000000000000000000 G
b00000000000000000000000000000000 H
b0 I
b11111111111111111111111100111001 J
b0 K
b00000000000000000000000000000000 L
b00000000000000000000000000000000 M
b0 N
b00000000000000000000000100100011 O
b0 P
b00000000000000000000000000000000 Q
b00000000000000000000000000000000 R
b0 S
b000000000000 T
b0 U
b1 V
b00000000000000000000000000000000 W
b11111111111111111111111100111001 X
b0000000111 Y
b00000000000000000000000000000000 Z
b0000000000 [
#20
b011 !
b00000000000000000000000000011111 "
b00000000000000000000000001010001 #
b0000000000000101 $
b0 %
b0 &
b0 '
b000 (
b0 )
b1 *
b00100000000000000000000000000000 +
b00000000000000000000000000011111 ,
b0 -
b0 .
b00000000000000000000000000000000 /
b0 0
b1 1
b00100000000000000000000000000000 2
b0 3
b0 4
b00000000000000000000000000000000 5
b0 6
b1 7
b00100000000000000000000000000000 8
b00000000000000000000000000011111 9
b0 :
b0 ;
b00000000000000000000000000000000 <
b0 =
b1 >
b00100000000000000000000000000000 ?
b00000000000000000000000000011111 @
b0 A
b0 B
b00000000000000000000000000000000 C
b0 D
b00000000000000000000000000000000 E
b0 F
b00000000000000000000000000000000 G
b00000000000000000000000000000000 H
b0 I
b11111111111111111111111100111001 J
b0 K
b00000000000000000000000000000000 L
b00000000000000000000000000000000 M
b0 N
b00000000000000000000000100100011 O
b0 P
b00000000000000000000000000000000 Q
b00000000000000000000000000000000 R
b0 S
b000000000000 T
b0 U
b1 V
b00000000000000000000000000000000 W
b11111111111111111111111100111001 X
b0000001000 Y
b00000000000000000000000000000000 Z
b0000000000 [
#21
b011 !
b00000000000000000000000000011111 "
b00000000000000000000000001010001 #
b0000000000000101 $
b0 %
b0 &
b0 '
b000 (
b0 )
b1 *
b00100000000000000000000000000000 +
b00000000000000000000000000011111 ,
b1 -
b0 .
b00000000000000000000000000000000 /
b0 0
b1 1
b00100000000000000000000000000000 2
b0 3
b0 4
b00000000000000000000000000000000 5
b0 6
b1 7
b00100000000000000000000000000000 8
b00000000000000000000000000011111 9
b0 :
b0 ;
b00000000000000000000000000000000 <
b0 =
b1 >
b00100000000000000000000000000000 ?
b00000000000000000000000000011111 @
b1 A
b0 B
b00000000000000000000000000000000 C
b0 D
b00000000000000000000000000000000 E
b0 F
b00000000000000000000000000011111 G
b00100000000000000000000000000000 H
b1 I
b11111111111111111111111100111001 J
b0 K
b00000000000000000000000000000000 L
b00000000000000000000000000000000 M
b0 N
b00000000000000000000000100100011 O
b0 P
b00000000000000000000000000000000 Q
b00000000000000000000000000000000 R
b0 S
b000000000000 T
b0 U
b1 V
b00000000000000000000000000000000 W
b11111111111111111111111100111001 X
b0000001001 Y
b00000000000000000000000000000000 Z
b0000000000 [
#22
b011 !
b00000000000000000000000000011111 "
b00000000000000000000000001010001 #
b0000000000000101 $
b0 %
b0 &
b0 '
b000 (
b0 )
b0 *
b00000000000000000000000000000000 +
b00000000000000000000000000000000 ,
b1 -
b0 .
b00000000000000000000000000000000 /
b0 0
b0 1
b00000000000000000000000000000000 2
b0 3
b0 4
b00000000000000000000000000000000 5
b0 6
b0 7
b00000000000000000000000000000000 8
b00000000000000000000000000000000 9
b0 :
b0 ;
b00000000000000000000000000000000 <
b0 =
b0 >
b00100000000000000000000000000000 ?
b00000000000000000000000000011111 @
b1 A
b0 B
b00000000000000000000000000000000 C
b0 D
b00000000000000000000000000000000 E
b0 F
b00000000000000000000000000000000 G
b00000000000000000000000000000000 H
b0 I
b11111111111111111111111100111000 J
b0 K
b00000000000000000000000000000000 L
b00000000000000000000000000000000 M
b0 N
b00000000000000000000000100100011 O
b0 P
b00000000000000000000000000000000 Q
b00000000000000000000000000000000 R
b0 S
b000000011111 T
b0 U
b1 V
b00000000000000000000000000000000 W
b11111111111111111111111100111000 X
b0000000000 Y
b00000000000000000000000000000000 Z
b0000000000 [
#23
b011 !
b00000000000000000000000000011111 "
b00000000000000000000000001010001 #
b0000000000000101 $
b0 %
b0 &
b0 '
b000 (
b0 )
b0 *
b00000000000000000000000000000000 +
b00000000000000000000000000000000 ,
b0 -
b0 .
b00000000000000000000000000000000 /
b0 0
b0 1
b00000000000000000000000000000000 2
b0 3
b0 4
b00000000000000000000000000000000 5
b0 6
b0 7
b00000000000000000000000000000000 8
b00000000000000000000000000000000 9
b0 :
b0 ;
b00000000000000000000000000000000 <
b0 =
b0 >
b00100000000000000000000000000000 ?
b00000000000000000000000000011111 @
b0 A
b0 B
b00000000000000000000000000000000 C
b0 D
b00000000000000000000000001000000 E
b0 F
b00000000000000000000000000000000 G
b00000000000000000000000000000000 H
b0 I
b11111111111111111111111100111000 J
b0 K
b00000000000000000000000000000000 L
b00000000000000000000000000000000 M
b0 N
b00000000000000000000000100100011 O
b0 P
b00000000000000000000000000000000 Q
b00000000000000000000000000000000 R
b0 S
b000000011111 T
b0 U
b1 V
b00000000000000000000000000000000 W
b11111111111111111111111100111000 X
b0000000001 Y
b00000000000000000000000000000000 Z
b0000000000 [
